Flow ID,Src IP,Src Port,Dst IP,Dst Port,Protocol,Timestamp,Flow Duration,Tot Fwd Pkts,Tot Bwd Pkts,TotLen Fwd Pkts,TotLen Bwd Pkts,Fwd Pkt Len Max,Fwd Pkt Len Min,Fwd Pkt Len Mean,Fwd Pkt Len Std,Bwd Pkt Len Max,Bwd Pkt Len Min,Bwd Pkt Len Mean,Bwd Pkt Len Std,Flow Byts/s,Flow Pkts/s,Flow IAT Mean,Flow IAT Std,Flow IAT Max,Flow IAT Min,Fwd IAT Tot,Fwd IAT Mean,Fwd IAT Std,Fwd IAT Max,Fwd IAT Min,Bwd IAT Tot,Bwd IAT Mean,Bwd IAT Std,Bwd IAT Max,Bwd IAT Min,Fwd PSH Flags,Bwd PSH Flags,Fwd URG Flags,Bwd URG Flags,Fwd Header Len,Bwd Header Len,Fwd Pkts/s,Bwd Pkts/s,Pkt Len Min,Pkt Len Max,Pkt Len Mean,Pkt Len Std,Pkt Len Var,FIN Flag Cnt,SYN Flag Cnt,RST Flag Cnt,PSH Flag Cnt,ACK Flag Cnt,URG Flag Cnt,CWE Flag Count,ECE Flag Cnt,Down/Up Ratio,Pkt Size Avg,Fwd Seg Size Avg,Bwd Seg Size Avg,Fwd Byts/b Avg,Fwd Pkts/b Avg,Fwd Blk Rate Avg,Bwd Byts/b Avg,Bwd Pkts/b Avg,Bwd Blk Rate Avg,Subflow Fwd Pkts,Subflow Fwd Byts,Subflow Bwd Pkts,Subflow Bwd Byts,Init Fwd Win Byts,Init Bwd Win Byts,Fwd Act Data Pkts,Fwd Seg Size Min,Active Mean,Active Std,Active Max,Active Min,Idle Mean,Idle Std,Idle Max,Idle Min,Label
142.3.141.39-60.61.0.1-22-58556-6,60.61.0.1,58556,142.3.141.39,22,6,02/05/2023 01:35:29 PM,34377,9,9,1601.0,1605.0,1360.0,0.0,177.8888888888889,446.0785929756225,1056.0,0.0,178.33333333333334,368.89293839812115,93260.0285074323,523.6058992931321,2022.1764705882354,3172.0460911550076,10523.0,0.0,31606.0,3950.75,5085.63912966137,12379.0,0.0,31685.0,3960.625,4061.740124538461,10523.0,18.0,0,0,0,0,180,204,261.80294964656605,261.80294964656605,0.0,1360.0,168.73684210526315,388.0578195901086,150588.87134502927,0,1,0,0,0,0,0,0,1.0,178.11111111111111,177.88888888888889,178.33333333333334,0,0,0,0,0,0,9,1601,9,1605,-1,65535,4,0,0,0,0,0,0,0,0,0,No Label
142.3.141.39-60.61.0.1-22-58556-6,142.3.141.39,22,60.61.0.1,58556,6,02/05/2023 01:35:29 PM,1234,1,1,0.0,0.0,0.0,0.0,0.0,0.0,0.0,0.0,0.0,0.0,0.0,1620.7455429497568,1234.0,0.0,1234.0,1234.0,0,0,0,0,0,0,0,0,0,0,0,0,0,0,20,20,810.3727714748784,810.3727714748784,0.0,0.0,0.0,0.0,0.0,0,0,0,0,1,0,0,0,1.0,0.0,0.0,0.0,0,0,0,0,0,0,1,0,1,0,-1,65535,0,0,0,0,0,0,0,0,0,0,No Label
142.3.141.39-60.61.0.1-22-44418-6,60.61.0.1,44418,142.3.141.39,22,6,02/05/2023 01:35:41 PM,14102015,83047,301290,129157.0,4.04927733E8,1360.0,0.0,1.5552277625922468,8.71688375634509,1360.0,0.0,1343.9799960170988,146.7043066902915,2.872333421854962E7,27254.04844626814,36.69189199034241,4697.48385653338,2904390.0,-2171.0,1.4097971E7,169.76098788623298,10106.915771585827,2904390.0,0.0,1.4102019E7,46.80562184480837,5388.911412680372,2949844.0,0.0,0,0,0,0,1660940,6025824,5889.016569617888,21365.031876650253,0.0,1360.0,1053.907992444147,567.5798743497678,322146.9137668983,0,1,0,0,0,0,0,0,3.0,1053.910734589696,1.555227762592267,1343.9799960171263,0,0,0,0,0,0,83047,129157,301290,404927733,-1,65535,3538,0,0,0,0,0,0,0,0,0,No Label
142.3.141.39-60.61.0.1-22-44418-6,142.3.141.39,22,60.61.0.1,44418,6,02/05/2023 01:35:55 PM,1446,2,1,0.0,0.0,0.0,0.0,0.0,0.0,0.0,0.0,0.0,0.0,0.0,2074.688796680498,723.0,988.5352800987935,1422.0,24.0,1422.0,1422.0,0.0,1422.0,1422.0,0,0,0,0,0,0,0,0,0,40,20,1383.1258644536654,691.5629322268327,0.0,0.0,0.0,0.0,0.0,0,0,0,0,1,0,0,0,0.0,0.0,0.0,0.0,0,0,0,0,0,0,2,0,1,0,-1,65535,0,0,0,0,0,0,0,0,0,0,No Label
142.3.141.39-60.61.0.2-22-49556-6,60.61.0.2,49556,142.3.141.39,22,6,02/05/2023 01:35:54 PM,21935952,73271,301289,129121.0,4.04942333E8,1360.0,0.0,1.7622388120811439,9.259614063484813,1360.0,0.0,1344.0329152408635,146.26730085440815,1.8466098667611964E7,17075.165007655014,58.564744139105954,5272.149053293735,2734314.0,-1421.0,2.1935009E7,299.37230790228,11937.105378938919,2734314.0,0.0,2.1933979E7,72.80070563713168,5884.537006419834,2735476.0,0.0,0,0,0,0,1465420,6025804,3340.224303918973,13734.94070373604,0.0,1360.0,1081.4565691569524,548.3873628829393,300728.69976970454,0,1,0,0,0,0,0,0,4.0,1081.4594564288766,1.762238812081178,1344.0329152408485,0,0,0,0,0,0,73271,129121,301289,404942333,-1,65535,3537,0,0,0,0,0,0,0,0,0,No Label
142.3.141.39-60.61.0.2-22-49556-6,142.3.141.39,22,60.61.0.2,49556,6,02/05/2023 01:36:16 PM,1655,3,1,0.0,0.0,0.0,0.0,0.0,0.0,0.0,0.0,0.0,0.0,0.0,2416.918429003021,551.6666666666666,932.9985709170905,1629.0,12.0,1641.0,820.5,1143.3916651786474,1629.0,12.0,0,0,0,0,0,0,0,0,0,60,20,1812.6888217522658,604.2296072507553,0.0,0.0,0.0,0.0,0.0,0,0,0,0,1,0,0,0,0.0,0.0,0.0,0.0,0,0,0,0,0,0,3,0,1,0,-1,65535,0,0,0,0,0,0,0,0,0,0,No Label
142.3.141.39-60.61.0.4-22-58108-6,60.61.0.4,58108,142.3.141.39,22,6,02/05/2023 01:36:07 PM,33489251,115716,301287,129157.0,4.04928985E8,1360.0,0.0,1.116155069307622,7.417688003544187,1360.0,0.0,1343.997533912869,146.5703159397539,1.2095168745338615E7,12451.846116235922,80.30956925866191,3005.2633391552654,1918597.0,-3324.0,3.348851E7,289.4050900920372,5727.041355053843,1918597.0,0.0,3.3486572E7,111.1454631147816,3559.1951627856915,1919772.0,0.0,0,0,0,0,2314320,6025764,3455.317648041755,8996.528468194167,0.0,1360.0,971.3531333032695,614.077315345303,377090.9492216947,0,1,0,0,0,0,0,0,2.0,971.3554626705323,1.1161550693076152,1343.9975339128473,0,0,0,0,0,0,115716,129157,301287,404928985,-1,65535,3538,0,0,0,0,0,0,0,0,0,No Label
142.3.141.39-60.61.0.4-22-58108-6,142.3.141.39,22,60.61.0.4,58108,6,02/05/2023 01:36:41 PM,2133,3,1,0.0,0.0,0.0,0.0,0.0,0.0,0.0,0.0,0.0,0.0,0.0,1875.293014533521,711.0,1216.7707261435903,2116.0,5.0,2121.0,1060.5,1492.7024150848017,2116.0,5.0,0,0,0,0,0,0,0,0,0,60,20,1406.4697609001407,468.82325363338026,0.0,0.0,0.0,0.0,0.0,0,0,0,0,1,0,0,0,0.0,0.0,0.0,0.0,0,0,0,0,0,0,3,0,1,0,-1,65535,0,0,0,0,0,0,0,0,0,0,No Label
142.3.141.39-60.61.0.3-22-57532-6,60.61.0.3,57532,142.3.141.39,22,6,02/05/2023 01:36:01 PM,43064470,90629,301289,129157.0,4.04957293E8,1360.0,0.0,1.425117787904532,8.35539396230359,1360.0,0.0,1344.0825685637044,145.72210034195976,9406511.911095155,9100.727351340909,109.88160758527661,5936.115544866723,2223567.0,-2218.0,4.3063031E7,475.16254358476834,12359.435113526586,2223567.0,0.0,4.3064474E7,142.93458086615115,6834.826917061757,2265865.0,0.0,0,0,0,0,1812580,6025804,2104.495887212823,6996.2314641280855,0.0,1360.0,1033.597375988421,580.3581460055314,336815.5776349777,0,1,0,0,0,0,0,0,3.0,1033.6000132680815,1.4251177879045338,1344.0825685637378,0,0,0,0,0,0,90629,129157,301289,404957293,-1,65535,3538,0,0,0,0,0,0,0,0,0,No Label
142.3.141.39-60.61.0.3-22-57532-6,142.3.141.39,22,60.61.0.3,57532,6,02/05/2023 01:36:44 PM,2083,2,1,0.0,0.0,0.0,0.0,0.0,0.0,0.0,0.0,0.0,0.0,0.0,1440.230436869899,1041.5,1450.276008213609,2067.0,16.0,2067.0,2067.0,0.0,2067.0,2067.0,0,0,0,0,0,0,0,0,0,40,20,960.1536245799327,480.07681228996637,0.0,0.0,0.0,0.0,0.0,0,0,0,0,1,0,0,0,0.0,0.0,0.0,0.0,0,0,0,0,0,0,2,0,1,0,-1,65535,0,0,0,0,0,0,0,0,0,0,No Label
142.250.190.35-60.61.0.1-443-58834-6,60.61.0.1,58834,142.250.190.35,443,6,02/05/2023 01:34:24 PM,630783853,14,16,0.0,0.0,0.0,0.0,0.0,0.0,0.0,0.0,0.0,0.0,0.0,0.04755987309649792,2.1751167344827592E7,2.2912579100039534E7,4.5059678E7,117.0,5.85727341E8,4.505594930769231E7,2182.6676485674498,4.5059795E7,4.5052351E7,6.30783853E8,4.205225686666667E7,1.1633234316222588E7,4.5059924E7,623.0,0,0,0,0,280,320,0.022194607445032363,0.025365265651465557,0.0,0.0,0.0,0.0,0.0,0,0,0,0,1,0,0,0,1.0,0.0,0.0,0.0,0,0,0,0,0,0,14,0,16,0,-1,65535,0,0,519.1428571428571,246.27091309645695,828.0,117.0,4.505544278571429E7,2220.683303663408,4.5059678E7,4.5052105E7,No Label
142.250.190.68-60.61.0.1-443-42932-6,60.61.0.1,42932,142.250.190.68,443,6,02/05/2023 01:34:26 PM,630783786,14,16,0.0,0.0,0.0,0.0,0.0,0.0,0.0,0.0,0.0,0.0,0.0,0.047559878148167874,2.1751165034482762E7,2.2912525854420457E7,4.505702E7,126.0,5.85727161E8,4.5055935461538464E7,1037.6828847152512,4.5057272E7,4.5054165E7,6.30783786E8,4.20522524E7,1.1633251466665357E7,4.5057601E7,556.0,0,0,0,0,280,320,0.02219460980247834,0.025365268345689532,0.0,0.0,0.0,0.0,0.0,0,0,0,0,1,0,0,0,1.0,0.0,0.0,0.0,0,0,0,0,0,0,14,0,16,0,-1,65535,0,0,585.9285714285714,291.0438677708791,1202.0,126.0,4.505538635714286E7,1115.272274941095,4.505702E7,4.505379E7,No Label
142.250.191.198-60.61.0.1-443-44356-6,60.61.0.1,44356,142.250.191.198,443,6,02/05/2023 01:34:26 PM,630783807,14,16,0.0,0.0,0.0,0.0,0.0,0.0,0.0,0.0,0.0,0.0,0.0,0.04755987656480852,2.175116575862069E7,2.2912537359595012E7,4.5057413E7,104.0,5.85727163E8,4.5055935615384616E7,965.3768295725081,4.5057933E7,4.5054446E7,6.30783807E8,4.2052253800000004E7,1.163322750331327E7,4.5058235E7,644.0,0,0,0,0,280,320,0.022194609063577307,0.02536526750123121,0.0,0.0,0.0,0.0,0.0,0,0,0,0,1,0,0,0,1.0,0.0,0.0,0.0,0,0,0,0,0,0,14,0,16,0,-1,65535,0,0,573.5714285714286,278.87099699867133,1128.0,104.0,4.505539878571428E7,1001.360857000661,4.5057413E7,4.5053675E7,No Label
142.250.190.35-60.61.0.1-443-58842-6,60.61.0.1,58842,142.250.190.35,443,6,02/05/2023 01:34:26 PM,630783780,14,16,0.0,0.0,0.0,0.0,0.0,0.0,0.0,0.0,0.0,0.0,0.0,0.04755987860055628,2.1751164827586208E7,2.291251650698347E7,4.5057007E7,168.0,5.85727161E8,4.505593546153847E7,1039.4943173967215,4.505736E7,4.5054165E7,6.3078378E8,4.2052252E7,1.1633255788089974E7,4.5057575E7,540.0,0,0,0,0,280,320,0.022194610013592932,0.02536526858696335,0.0,0.0,0.0,0.0,0.0,0,0,0,0,1,0,0,0,1.0,0.0,0.0,0.0,0,0,0,0,0,0,14,0,16,0,-1,65535,0,0,595.6428571428571,249.2513736225886,1017.0,169.0,4.505537664285715E7,1131.6097864518133,4.5057007E7,4.5053545E7,No Label
24.89.115.205-60.61.0.1-443-49938-6,60.61.0.1,49938,24.89.115.205,443,6,02/05/2023 01:34:34 PM,630780474,14,16,0.0,0.0,0.0,0.0,0.0,0.0,0.0,0.0,0.0,0.0,0.0,0.047560127867876896,2.1751050827586208E7,2.291254948129537E7,4.5059016E7,63.0,5.85727955E8,4.5055996538461536E7,1882.9608606026914,4.5059554E7,4.5051915E7,6.30780474E8,4.20520316E7,1.163315153751237E7,4.5059523E7,697.0,0,0,0,0,280,320,0.022194726338342553,0.025365401529534346,0.0,0.0,0.0,0.0,0.0,0,0,0,0,1,0,0,0,1.0,0.0,0.0,0.0,0,0,0,0,0,0,14,0,16,0,-1,65535,0,0,384.64285714285717,186.342780563487,697.0,63.0,4.505529614285715E7,2233.3451576967423,4.5059016E7,4.5050879E7,No Label
172.217.2.42-60.61.0.1-443-40110-6,60.61.0.1,40110,172.217.2.42,443,6,02/05/2023 01:34:26 PM,630783801,14,16,0.0,0.0,0.0,0.0,0.0,0.0,0.0,0.0,0.0,0.0,0.0,0.04755987701719689,2.175116555172414E7,2.2912534473205317E7,4.5057363E7,117.0,5.85727163E8,4.505593561538461E7,991.844203025438,4.5057933E7,4.5054302E7,6.30783801E8,4.20522534E7,1.1633231819336385E7,4.5057971E7,628.0,0,0,0,0,280,320,0.022194609274691884,0.02536526774250501,0.0,0.0,0.0,0.0,0.0,0,0,0,0,1,0,0,0,1.0,0.0,0.0,0.0,0,0,0,0,0,0,14,0,16,0,-1,65535,0,0,576.7142857142857,245.12522029847037,1175.0,117.0,4.505539564285715E7,1020.7655202124013,4.5057363E7,4.5053804E7,No Label
24.89.115.205-60.61.0.1-443-49930-6,60.61.0.1,49930,24.89.115.205,443,6,02/05/2023 01:34:34 PM,630780407,14,16,0.0,0.0,0.0,0.0,0.0,0.0,0.0,0.0,0.0,0.0,0.0,0.04756013291960098,2.175104851724138E7,2.291249325611798E7,4.5059064E7,86.0,5.85727667E8,4.505597438461538E7,1900.1590081913855,4.5059556E7,4.5051913E7,6.30780407E8,4.2052027133333325E7,1.1633162217451563E7,4.50596E7,654.0,0,0,0,0,280,320,0.02219472869581379,0.025365404223787188,0.0,0.0,0.0,0.0,0.0,0,0,0,0,1,0,0,0,1.0,0.0,0.0,0.0,0,0,0,0,0,0,14,0,16,0,-1,65535,0,0,423.7142857142858,241.54325255974933,999.0,86.0,4.505523664285714E7,2295.01699699267,4.5059064E7,4.5050924E7,No Label
142.250.191.206-60.61.0.1-443-44536-6,60.61.0.1,44536,142.250.191.206,443,6,02/05/2023 01:34:24 PM,630783838,14,16,0.0,0.0,0.0,0.0,0.0,0.0,0.0,0.0,0.0,0.0,0.0,0.04755987422746872,2.1751166827586204E7,2.291259870084066E7,4.5059617E7,147.0,5.85727342E8,4.505594938461538E7,2043.8530417832242,4.5059795E7,4.5052496E7,6.30783838E8,4.205225586666667E7,1.1633240634226002E7,4.5059768E7,599.0,0,0,0,0,280,320,0.022194607972818733,0.025365266254649983,0.0,0.0,0.0,0.0,0.0,0,0,0,0,1,0,0,0,1.0,0.0,0.0,0.0,0,0,0,0,0,0,14,0,16,0,-1,65535,0,0,499.71428571428567,276.5558584755399,1040.0,147.0,4.5055462214285724E7,1987.956398631688,4.5059617E7,4.5052345E7,No Label
142.250.191.206-60.61.0.1-443-44548-6,60.61.0.1,44548,142.250.191.206,443,6,02/05/2023 01:34:26 PM,630783773,14,16,0.0,0.0,0.0,0.0,0.0,0.0,0.0,0.0,0.0,0.0,0.0,0.047559879128342766,2.1751164586206894E7,2.2912366671394132E7,4.5056799E7,161.0,5.85727161E8,4.505593546153846E7,1182.8007450807133,4.5058034E7,4.5054035E7,6.30783773E8,4.205225153333333E7,1.1633264813694634E7,4.5058897E7,507.0,0,0,0,0,280,320,0.02219461025989329,0.025365268868449475,0.0,0.0,0.0,0.0,0.0,0,0,0,0,1,0,0,0,1.0,0.0,0.0,0.0,0,0,0,0,0,0,14,0,16,0,-1,65535,0,0,748.2857142857142,554.6081677907564,2357.0,174.0,4.505522400000001E7,1204.7670697322167,4.5056799E7,4.5053539E7,No Label
142.250.190.66-60.61.0.1-443-52316-6,60.61.0.1,52316,142.250.190.66,443,6,02/05/2023 01:34:24 PM,630783847,14,16,0.0,0.0,0.0,0.0,0.0,0.0,0.0,0.0,0.0,0.0,0.0,0.04755987354888623,2.1751167137931038E7,2.2912574034763422E7,4.5059683E7,112.0,5.85727341E8,4.5055949307692304E7,2154.5180584299483,4.5059795E7,4.5052351E7,6.30783847E8,4.205225646666667E7,1.1633237516718114E7,4.5059943E7,611.0,0,0,0,0,280,320,0.022194607656146906,0.02536526589273932,0.0,0.0,0.0,0.0,0.0,0,0,0,0,1,0,0,0,1.0,0.0,0.0,0.0,0,0,0,0,0,0,14,0,16,0,-1,65535,0,0,524.5,246.74862636980296,860.0,112.0,4.505543742857142E7,2184.850275252973,4.5059683E7,4.5052091E7,No Label
142.3.141.39-60.61.0.1-22-60676-6,60.61.0.1,60676,142.3.141.39,22,6,02/05/2023 01:42:49 PM,149616005,369193,1269152,537877.0,1.706129181E9,1360.0,0.0,1.456899236984502,7.769159256792461,1360.0,0.0,1344.3064195619907,144.49279367017985,1.1406981880046858E7,10950.33248615347,91.32148376653221,6472.3013964956435,3203529.0,-6095.0,1.49611676E8,405.2408394548165,13659.734912940283,3203529.0,0.0,1.49616005E8,117.88668566625071,7372.516459441078,3205138.0,0.0,0,0,0,0,7383860,25383064,2467.6036497565883,8482.728836396882,0.0,1360.0,1041.7012389324925,575.3003420645823,330970.4835796254,0,1,0,0,0,0,0,0,3.0,1041.7018747577586,1.4568992369844498,1344.3064195620382,0,0,0,0,0,0,369193,537877,1269152,1706129181,-1,65535,14850,0,0,0,0,0,0,0,0,0,No Label
142.3.141.39-60.61.0.2-22-33104-6,60.61.0.2,33104,142.3.141.39,22,6,02/05/2023 01:43:00 PM,137530683,382103,1042699,442945.0,1.401664088E9,1360.0,0.0,1.1592293177493374,7.0984982050109195,1360.0,0.0,1344.265303793292,144.86656687869217,1.0194867082860338E7,10359.884564813801,96.52623980471697,6306.403883111127,3605230.0,-4476.0,1.37530133E8,359.9304191027562,12198.448617155887,3605230.0,0.0,1.37528003E8,131.89629499625642,7390.873652608278,3607065.0,0.0,0,0,0,0,7642060,20854004,2778.3109315322745,7581.573633281527,0.0,1360.0,984.0708034725022,607.7921581877417,369411.30755451287,0,1,0,0,0,0,0,0,2.0,984.0714941444495,1.1592293177494026,1344.2653037933287,0,0,0,0,0,0,382103,442945,1042699,1401664088,-1,65535,12204,0,0,0,0,0,0,0,0,0,No Label
142.3.141.39-60.61.0.3-22-41086-6,60.61.0.3,41086,142.3.141.39,22,6,02/05/2023 01:43:08 PM,129282690,333679,1057605,448921.0,1.421716182E9,1360.0,0.0,1.345367853535862,7.597708570482155,1360.0,0.0,1344.278990738535,144.70791011590075,1.1000429392364902E7,10761.564444551703,92.92335923029101,5558.342440994076,2273465.0,-10575.0,1.29281747E8,387.4446232595492,11372.735004989756,2273465.0,0.0,1.29281144E8,122.23965113595708,6393.573290865962,2274405.0,0.0,0,0,0,0,6673580,21152124,2581.002916941162,8180.561527610541,0.0,1360.0,1022.1953826858071,587.138195377622,344731.2604712906,0,1,0,0,0,0,0,0,3.0,1022.196117399467,1.3453678535358833,1344.2789907385081,0,0,0,0,0,0,333679,448921,1057605,1421716182,-1,65535,12379,0,0,0,0,0,0,0,0,0,No Label
172.217.4.214-60.61.0.1-443-47290-6,60.61.0.1,47290,172.217.4.214,443,6,02/05/2023 01:34:24 PM,630783860,14,16,0.0,0.0,0.0,0.0,0.0,0.0,0.0,0.0,0.0,0.0,0.0,0.047559872568711574,2.175116758620689E7,2.2912578723431207E7,4.5059633E7,141.0,5.85727341E8,4.505594930769231E7,2289.428399718378,4.5059911E7,4.5052352E7,6.3078386E8,4.2052257333333336E7,1.1633231123501347E7,4.5059896E7,635.0,0,0,0,0,280,320,0.022194607198732067,0.025365265369979503,0.0,0.0,0.0,0.0,0.0,0,0,0,0,1,0,0,0,1.0,0.0,0.0,0.0,0,0,0,0,0,0,14,0,16,0,-1,65535,0,0,519.2857142857143,226.330061422023,814.0,141.0,4.505544264285714E7,2248.6566111669913,4.5059633E7,4.5052211E7,No Label
142.251.32.13-60.61.0.1-443-59914-6,60.61.0.1,59914,142.251.32.13,443,6,02/05/2023 01:34:24 PM,630783834,14,16,0.0,0.0,0.0,0.0,0.0,0.0,0.0,0.0,0.0,0.0,0.0,0.047559874529060936,2.175116668965517E7,2.2912589427018706E7,4.5059623E7,143.0,5.8572725E8,4.5055942307692304E7,2046.6928357962927,4.5059795E7,4.5052496E7,6.30783834E8,4.20522556E7,1.1633251914955597E7,4.5059917E7,558.0,0,0,0,0,280,320,0.022194608113561772,0.025365266415499167,0.0,0.0,0.0,0.0,0.0,0,0,0,0,1,0,0,0,1.0,0.0,0.0,0.0,0,0,0,0,0,0,14,0,16,0,-1,65535,0,0,502.8571428571429,285.9458951358717,1003.0,143.0,4.505545264285714E7,2014.4687639925114,4.5059623E7,4.5052202E7,No Label
142.250.191.163-60.61.0.1-443-57840-6,60.61.0.1,57840,142.250.191.163,443,6,02/05/2023 01:34:24 PM,630783843,14,16,0.0,0.0,0.0,0.0,0.0,0.0,0.0,0.0,0.0,0.0,0.0,0.04755987385047844,2.1751167000000004E7,2.291257367788236E7,4.5059688E7,107.0,5.85727341E8,4.505594930769231E7,2120.1181722028273,4.5059795E7,4.505235E7,6.30783843E8,4.20522562E7,1.1633244356096534E7,4.5059966E7,586.0,0,0,0,0,280,320,0.022194607796889938,0.025365266053588503,0.0,0.0,0.0,0.0,0.0,0,0,0,0,1,0,0,0,1.0,0.0,0.0,0.0,0,0,0,0,0,0,14,0,16,0,-1,65535,0,0,525.0,296.5312280869744,1150.0,107.0,4.5055436928571425E7,2158.1992659217135,4.5059688E7,4.5052072E7,No Label
142.250.191.170-60.61.0.1-443-37202-6,60.61.0.1,37202,142.250.191.170,443,6,02/05/2023 01:34:24 PM,630783095,14,16,0.0,0.0,0.0,0.0,0.0,0.0,0.0,0.0,0.0,0.0,0.0,0.04755993024828923,2.175114120689655E7,2.291257923742674E7,4.5059665E7,166.0,5.85727341E8,4.505594930769231E7,2288.774322085395,4.5060064E7,4.5052479E7,6.30783095E8,4.2052206333333336E7,1.1633283415914593E7,4.5060085E7,395.0,0,0,0,0,280,320,0.02219463411586831,0.025365296132420924,0.0,0.0,0.0,0.0,0.0,0,0,0,0,1,0,0,0,1.0,0.0,0.0,0.0,0,0,0,0,0,0,14,0,16,0,-1,65535,0,0,490.2142857142857,211.18062941888925,766.0,166.0,4.505541678571428E7,2263.466170367248,4.5059665E7,4.5052059E7,No Label
142.3.141.39-60.61.0.4-22-47488-6,60.61.0.4,47488,142.3.141.39,22,6,02/05/2023 01:43:14 PM,124384009,219768,845130,359533.0,1.136182467E9,1360.0,0.0,1.635966109715688,8.552672290536018,1360.0,0.0,1344.387806609672,143.82734063457812,9137364.27324834,8561.37383383422,116.80379323070918,7084.138658404323,2650450.0,-11788.0,1.24380931E8,565.9672789818196,15622.520952769537,2650450.0,0.0,1.24384009E8,147.1775421266964,7973.624304656228,2652572.0,0.0,0,0,0,0,4395360,16902624,1766.8509140913764,6794.5229197428425,0.0,1360.0,1067.2768027766076,558.3308446073305,311733.332039935,0,1,0,0,0,0,0,0,3.0,1067.277805010433,1.6359661097157001,1344.387806609634,0,0,0,0,0,0,219768,359533,845130,1136182467,-1,65535,9895,0,0,0,0,0,0,0,0,0,No Label
142.250.190.129-60.61.0.1-443-45502-6,60.61.0.1,45502,142.250.190.129,443,6,02/05/2023 01:34:26 PM,630783793,14,16,0.0,0.0,0.0,0.0,0.0,0.0,0.0,0.0,0.0,0.0,0.0,0.04755987762038141,2.1751165275862068E7,2.2912557849521134E7,4.5057037E7,121.0,5.85727162E8,4.505593553846153E7,930.7895944998614,4.5057272E7,4.5054301E7,6.30783793E8,4.2052252866666675E7,1.1633247715740977E7,4.5057632E7,570.0,0,0,0,0,280,320,0.022194609556177993,0.02536526806420342,0.0,0.0,0.0,0.0,0.0,0,0,0,0,1,0,0,0,1.0,0.0,0.0,0.0,0,0,0,0,0,0,14,0,16,0,-1,65535,0,0,553.1428571428571,266.3048736209792,1189.0,121.0,4.505541914285715E7,1019.6029285306507,4.5057037E7,4.5053795E7,No Label
